…
Construct by rows. 
tribble( ~x,     ~y, 
                   1,    "a", 
                   2,    "b", 
                   3,    "c")
A tibble: 3 × 2 
      x     y 
  <int> <chr> 
1     1     a 
2     2     b 
3     3     c
Both  
make this 
 tibble
# A tibble: 234 × 6 
   manufacturer      model displ 
          <chr>      <chr> <dbl> 
1          audi         a4   1.8 
2          audi         a4   1.8 
3          audi         a4   2.0 
4          audi         a4   2.0 
5          audi         a4   2.8 
6          audi         a4   2.8 
7          audi         a4   3.1 
8          audi a4 quattro   1.8 
9          audi a4 quattro   1.8 
10         audi a4 quattro   2.0 
# ... with 224 more rows, and 3 
#   more variables: year <int>, 
#   cyl <int>, trans <chr>
…
